\babel@toc {german}{}
\contentsline {chapter}{\numberline {1}Einleitung}{3}{chapter.1}% 
\contentsline {section}{\numberline {1.1}Die 3 Bereiche}{3}{section.1.1}% 
\contentsline {section}{\numberline {1.2}Navigation}{4}{section.1.2}% 
\contentsline {section}{\numberline {1.3}Wo starte ich?}{4}{section.1.3}% 
\contentsline {chapter}{\numberline {2}Konfiguration}{5}{chapter.2}% 
\contentsline {section}{\numberline {2.1}Aufbau der Konfigurationsseite}{5}{section.2.1}% 
\contentsline {section}{\numberline {2.2}Anzeigen Konfigurationsmen\IeC {\"u}}{6}{section.2.2}% 
\contentsline {section}{\numberline {2.3}Beispiel Konfigurationen}{7}{section.2.3}% 
\contentsline {chapter}{\numberline {3}Unfallanzeigensteuerung}{8}{chapter.3}% 
\contentsline {section}{\numberline {3.1}Aufbau}{8}{section.3.1}% 
\contentsline {section}{\numberline {3.2}Arbeiten}{9}{section.3.2}% 
\contentsline {subsection}{\numberline {3.2.1}Auslesen:}{9}{subsection.3.2.1}% 
\contentsline {subsection}{\numberline {3.2.2}Senden:}{9}{subsection.3.2.2}% 
\contentsline {subsubsection}{\nonumberline Sende Daten}{9}{section*.12}% 
\contentsline {subsubsection}{\nonumberline Melde Unfall}{9}{section*.13}% 
\contentsline {subsubsection}{\nonumberline Zeit}{9}{section*.14}% 
\contentsline {chapter}{\numberline {4}Monitor}{11}{chapter.4}% 
\contentsline {section}{\numberline {4.1}Aufbau}{11}{section.4.1}% 
\contentsline {section}{\numberline {4.2}Monitoring}{11}{section.4.2}% 
\contentsline {chapter}{\numberline {5}Hardware Anzeigen Logik}{12}{chapter.5}% 
