\relax 
\providecommand\hyper@newdestlabel[2]{}
\providecommand{\transparent@use}[1]{}
\providecommand*\new@tpo@label[2]{}
\catcode `"\active 
\providecommand\HyperFirstAtBeginDocument{\AtBeginDocument}
\HyperFirstAtBeginDocument{\ifx\hyper@anchor\@undefined
\global\let\oldcontentsline\contentsline
\gdef\contentsline#1#2#3#4{\oldcontentsline{#1}{#2}{#3}}
\global\let\oldnewlabel\newlabel
\gdef\newlabel#1#2{\newlabelxx{#1}#2}
\gdef\newlabelxx#1#2#3#4#5#6{\oldnewlabel{#1}{{#2}{#3}}}
\AtEndDocument{\ifx\hyper@anchor\@undefined
\let\contentsline\oldcontentsline
\let\newlabel\oldnewlabel
\fi}
\fi}
\global\let\hyper@last\relax 
\gdef\HyperFirstAtBeginDocument#1{#1}
\providecommand\HyField@AuxAddToFields[1]{}
\providecommand\HyField@AuxAddToCoFields[2]{}
\providecommand\BKM@entry[2]{}
\@input{vorlage/titelseite.aux}
\babel@aux{german}{}
\@input{chapters/UserManuelContent.aux}
\BKM@entry{id=1,dest={636861707465722E31},srcline={1}}{45696E6C656974756E67}
\BKM@entry{id=2,dest={73656374696F6E2E312E31},srcline={21}}{4469652033204265726569636865}
\BKM@entry{id=3,dest={73656374696F6E2E312E32},srcline={40}}{4E617669676174696F6E}
\BKM@entry{id=4,dest={73656374696F6E2E312E33},srcline={53}}{576F20737461727465206963683F}
\BKM@entry{id=5,dest={636861707465722E32},srcline={61}}{4B6F6E66696775726174696F6E}
\BKM@entry{id=6,dest={73656374696F6E2E322E31},srcline={66}}{41756662617520646572204B6F6E66696775726174696F6E737365697465}
\BKM@entry{id=7,dest={73656374696F6E2E322E32},srcline={78}}{416E7A656967656E204B6F6E66696775726174696F6E736D656E5C333734}
\BKM@entry{id=8,dest={73656374696F6E2E322E33},srcline={116}}{426569737069656C204B6F6E66696775726174696F6E656E}
\BKM@entry{id=9,dest={636861707465722E33},srcline={128}}{556E66616C6C616E7A656967656E737465756572756E67}
\BKM@entry{id=10,dest={73656374696F6E2E332E31},srcline={133}}{417566626175}
\BKM@entry{id=11,dest={73656374696F6E2E332E32},srcline={150}}{417262656974656E}
\BKM@entry{id=12,dest={73756273656374696F6E2E332E322E31},srcline={153}}{4175736C6573656E3A}
\BKM@entry{id=13,dest={73756273656374696F6E2E332E322E32},srcline={157}}{53656E64656E3A}
\BKM@entry{id=14,dest={636861707465722E34},srcline={184}}{4D6F6E69746F72}
\BKM@entry{id=15,dest={73656374696F6E2E342E31},srcline={189}}{417566626175}
\BKM@entry{id=16,dest={73656374696F6E2E342E32},srcline={203}}{4D6F6E69746F72696E67}
\BKM@entry{id=17,dest={636861707465722E35},srcline={211}}{486172647761726520416E7A656967656E204C6F67696B}
\global\@namedef{scr@dte@chapter@lastmaxnumwidth}{11.8799pt}
\global\@namedef{scr@dte@section@lastmaxnumwidth}{19.68687pt}
\global\@namedef{scr@dte@subsection@lastmaxnumwidth}{28.80675pt}
