\relax 
\providecommand\hyper@newdestlabel[2]{}
\providecommand{\transparent@use}[1]{}
\@writefile{toc}{\contentsline {chapter}{\numberline {1}Einleitung}{3}{chapter.1}\protected@file@percent }
\@writefile{lof}{\addvspace {10\p@ }}
\@writefile{lot}{\addvspace {10\p@ }}
\@writefile{lol}{\addvspace {10\p@ }}
\newlabel{Einleitung}{{1}{3}{Einleitung}{chapter.1}{}}
\@writefile{toc}{\contentsline {section}{\numberline {1.1}Die 3 Bereiche}{3}{section.1.1}\protected@file@percent }
\newlabel{Bereichsbeschreibung}{{1.1}{3}{Die 3 Bereiche}{section.1.1}{}}
\@writefile{toc}{\contentsline {section}{\numberline {1.2}Navigation}{4}{section.1.2}\protected@file@percent }
\newlabel{Navigation}{{1.2}{4}{Navigation}{section.1.2}{}}
\@writefile{toc}{\contentsline {section}{\numberline {1.3}Wo starte ich?}{4}{section.1.3}\protected@file@percent }
\newlabel{start}{{1.3}{4}{Wo starte ich?}{section.1.3}{}}
\@writefile{toc}{\contentsline {chapter}{\numberline {2}Konfiguration}{5}{chapter.2}\protected@file@percent }
\@writefile{lof}{\addvspace {10\p@ }}
\@writefile{lot}{\addvspace {10\p@ }}
\@writefile{lol}{\addvspace {10\p@ }}
\newlabel{Konfiguration}{{2}{5}{Konfiguration}{chapter.2}{}}
\@writefile{toc}{\contentsline {section}{\numberline {2.1}Aufbau der Konfigurationsseite}{5}{section.2.1}\protected@file@percent }
\newlabel{Konfiguration-Aufbau}{{2.1}{5}{Aufbau der Konfigurationsseite}{section.2.1}{}}
\@writefile{toc}{\contentsline {section}{\numberline {2.2}Anzeigen Konfigurationsmen\IeC {\"u}}{6}{section.2.2}\protected@file@percent }
\newlabel{AnzeigenKonfigurationsMen\IeC {\"u}}{{2.2}{6}{Anzeigen Konfigurationsmenü}{section.2.2}{}}
\@writefile{toc}{\contentsline {section}{\numberline {2.3}Beispiel Konfigurationen}{7}{section.2.3}\protected@file@percent }
\newlabel{BeispielKonfigurationen}{{2.3}{7}{Beispiel Konfigurationen}{section.2.3}{}}
\@writefile{toc}{\contentsline {chapter}{\numberline {3}Unfallanzeigensteuerung}{8}{chapter.3}\protected@file@percent }
\@writefile{lof}{\addvspace {10\p@ }}
\@writefile{lot}{\addvspace {10\p@ }}
\@writefile{lol}{\addvspace {10\p@ }}
\newlabel{Unfallanzeigensteuerung}{{3}{8}{Unfallanzeigensteuerung}{chapter.3}{}}
\@writefile{toc}{\contentsline {section}{\numberline {3.1}Aufbau}{8}{section.3.1}\protected@file@percent }
\newlabel{Unfallanzeigensteuerung-Aufbau}{{3.1}{8}{Aufbau}{section.3.1}{}}
\@writefile{toc}{\contentsline {section}{\numberline {3.2}Arbeiten}{9}{section.3.2}\protected@file@percent }
\newlabel{arbeiten}{{3.2}{9}{Arbeiten}{section.3.2}{}}
\@writefile{toc}{\contentsline {subsection}{\numberline {3.2.1}Auslesen:}{9}{subsection.3.2.1}\protected@file@percent }
\newlabel{Unfallanzeigensteuerung-arbeiten-auslesen}{{3.2.1}{9}{Auslesen:}{subsection.3.2.1}{}}
\@writefile{toc}{\contentsline {subsection}{\numberline {3.2.2}Senden:}{9}{subsection.3.2.2}\protected@file@percent }
\newlabel{Unfallanzeigensteuerung-arbeiten-senden}{{3.2.2}{9}{Senden:}{subsection.3.2.2}{}}
\@writefile{toc}{\contentsline {subsubsection}{\nonumberline Sende Daten}{9}{section*.12}\protected@file@percent }
\@writefile{toc}{\contentsline {subsubsection}{\nonumberline Melde Unfall}{9}{section*.13}\protected@file@percent }
\@writefile{toc}{\contentsline {subsubsection}{\nonumberline Zeit}{9}{section*.14}\protected@file@percent }
\@writefile{toc}{\contentsline {chapter}{\numberline {4}Monitor}{11}{chapter.4}\protected@file@percent }
\@writefile{lof}{\addvspace {10\p@ }}
\@writefile{lot}{\addvspace {10\p@ }}
\@writefile{lol}{\addvspace {10\p@ }}
\newlabel{Monitor}{{4}{11}{Monitor}{chapter.4}{}}
\@writefile{toc}{\contentsline {section}{\numberline {4.1}Aufbau}{11}{section.4.1}\protected@file@percent }
\@writefile{toc}{\contentsline {section}{\numberline {4.2}Monitoring}{11}{section.4.2}\protected@file@percent }
\@writefile{toc}{\contentsline {chapter}{\numberline {5}Hardware Anzeigen Logik}{12}{chapter.5}\protected@file@percent }
\@writefile{lof}{\addvspace {10\p@ }}
\@writefile{lot}{\addvspace {10\p@ }}
\@writefile{lol}{\addvspace {10\p@ }}
\newlabel{HardwareAnzeigenlogik}{{5}{12}{Hardware Anzeigen Logik}{chapter.5}{}}
\@setckpt{chapters/UserManuelContent}{
\setcounter{page}{13}
\setcounter{equation}{0}
\setcounter{enumi}{4}
\setcounter{enumii}{0}
\setcounter{enumiii}{0}
\setcounter{enumiv}{0}
\setcounter{footnote}{0}
\setcounter{mpfootnote}{0}
\setcounter{part}{0}
\setcounter{chapter}{5}
\setcounter{section}{0}
\setcounter{subsection}{0}
\setcounter{subsubsection}{0}
\setcounter{paragraph}{0}
\setcounter{subparagraph}{0}
\setcounter{figure}{0}
\setcounter{table}{0}
\setcounter{blindtext}{1}
\setcounter{Blindtext}{5}
\setcounter{blind@countparstart}{0}
\setcounter{blindlist}{0}
\setcounter{blindlistlevel}{0}
\setcounter{blindlist@level}{0}
\setcounter{blind@listcount}{0}
\setcounter{blind@levelcount}{0}
\setcounter{blind@randomcount}{0}
\setcounter{blind@randommax}{0}
\setcounter{blind@pangramcount}{0}
\setcounter{blind@pangrammax}{0}
\setcounter{Item}{23}
\setcounter{Hfootnote}{0}
\setcounter{bookmark@seq@number}{0}
\setcounter{NAT@ctr}{0}
\setcounter{float@type}{8}
\setcounter{caption@flags}{0}
\setcounter{ContinuedFloat}{0}
\setcounter{subfigure}{0}
\setcounter{subtable}{0}
\setcounter{SC@C}{0}
\setcounter{svg@param@lastpage}{0}
\setcounter{svg@param@currpage}{-1}
\setcounter{LT@tables}{0}
\setcounter{LT@chunks}{0}
\setcounter{parentequation}{0}
\setcounter{AM@survey}{0}
\setcounter{lstnumber}{1}
\setcounter{section@level}{1}
\setcounter{lstlisting}{0}
}
